<?xml version="1.0" encoding="utf-8"?>
<!-- Generator: Adobe Illustrator 22.1.0, SVG Export Plug-In . SVG Version: 6.00 Build 0)  -->
<svg version="1.1" id="Layer_1" xmlns="http://www.w3.org/2000/svg" xmlns:xlink="http://www.w3.org/1999/xlink" x="0px" y="0px"
	 viewBox="0 0 200 200" style="enable-background:new 0 0 200 200;" xml:space="preserve">
<style type="text/css">
	.st0{fill:#9DBC92;}
</style>
<g>
	<g>
		<path class="st0" d="M188.5,148.2H11.8c-1.4,0-2.5-1.1-2.5-2.5V44.1c0-1.4,1.1-2.5,2.5-2.5h176.7c1.4,0,2.5,1.1,2.5,2.5v101.6
			C191,147.1,189.9,148.2,188.5,148.2z M14.3,143.3H186V46.6H14.3V143.3z"/>
		<path class="st0" d="M188.5,67.5c-12.9,0-23.3-10.5-23.3-23.3c0-1.4,1.1-2.5,2.5-2.5s2.5,1.1,2.5,2.5c0,10.1,8.2,18.4,18.4,18.4
			c1.4,0,2.5,1.1,2.5,2.5C191,66.4,189.9,67.5,188.5,67.5z"/>
		<path class="st0" d="M167.7,148.2c-1.4,0-2.5-1.1-2.5-2.5c0-12.9,10.5-23.3,23.3-23.3c1.4,0,2.5,1.1,2.5,2.5s-1.1,2.5-2.5,2.5
			c-10.1,0-18.4,8.2-18.4,18.4C170.1,147.1,169,148.2,167.7,148.2z"/>
		<path class="st0" d="M11.8,67.5c-1.4,0-2.5-1.1-2.5-2.5s1.1-2.5,2.5-2.5c10.1,0,18.4-8.2,18.4-18.4c0-1.4,1.1-2.5,2.5-2.5
			c1.4,0,2.5,1.1,2.5,2.5C35.1,57,24.6,67.5,11.8,67.5z"/>
		<path class="st0" d="M32.6,148.2c-1.4,0-2.5-1.1-2.5-2.5c0-10.1-8.2-18.4-18.4-18.4c-1.4,0-2.5-1.1-2.5-2.5s1.1-2.5,2.5-2.5
			c12.9,0,23.3,10.5,23.3,23.3C35.1,147.1,34,148.2,32.6,148.2z"/>
	</g>
	<g>
		<path class="st0" d="M84.5,125.9v-2.8c7.1-3.9,10.8-10.7,10.8-18c0-2.8-0.1-5.2-0.6-8.3h-9.9v-3.7h9.5C93.8,90,93,85.7,93,81.5
			c0-10.8,7-17.5,16-17.5c4.8,0,7.9,1.1,9.7,2.3l-1.5,3.5c-1.6-1-4.5-2.1-8.7-2.1c-7.7,0-11.2,5.5-11.2,13.5c0,5,0.6,8.5,1.2,11.9
			h13.8v3.7H99c0.4,4.3,0.8,8.8-0.1,12.9c-1.1,5-3.7,9-7.6,12.2v0.2H121v3.8H84.5z"/>
	</g>
</g>
</svg>
